Fundamentos de programación con R – 2 Primeros pasos con ggplot2
…
geom_line()
identity

geom_smooth()
smooth

2.5 Ejemplo rápido

Para digerir los conceptos anteriores, vamos a ver un ejemplo rápido. Para este ejemplo, vamos a eliminar los valores ausentes, ya que el objetivo es solamente entender los conceptos anteriores y no generar un gráfico para publicar.

inventario_completo_tbl <- na.omit(inventario_tbl)
print(inventario_completo_tbl)

# A tibble: 418 × 4
   id_plots dbh_mm height_m nombre_ifn      
   <fct>     <int>    <dbl> <fct>           
 1 0           296     9.26 Pinus sylvestris
 2 0           303    10.1  Pinus sylvestris
 3 0           105     5.48 Pinus sylvestris
 4 0           138     7.07 Pinus nigra     
 5 0           153     7.54 Pinus sylvestris
 6 0           233     9.60 Pinus sylvestris
 7 0           140     7.01 Pinus sylvestris
 8 0           200     7.36 Pinus sylvestris
 9 0           210    10.1  Pinus sylvestris
10 0           142     6.25 Pinus sylvestris
# ℹ 408 more rows
…
Como veis, el resultado es exactamente el mismo. Normalmente utilizaremos el pipe operator (|> o %>%) como hacemos en el método 4 para inyectar los datos en el primer argumento de la función ggplot() que es data. El argumento mapping también se sabe perfectamente que es el segundo argumento de la función, por lo que no es necesario escribir mapping = ... si no directamente aes(...). En resumen, cualquier método de escritura de código de los anteriores se adecua en mayor o menor medida a los principios de diseño ordenado (Wickham 2014). No obstante, los métodos más adecuados serán los métodos 3 y 4 ya que nos ayudarán a que nuestro código sea más legible dado que la indentación nos ayuda a ver a qué función pertenece cada argumento y hará que nuestro código sea mucho más fácil de leer y mantener. Finalmente, para añadir componentes a nuestro gráfico utilizamos el operador matemático +.

Advertencia

Desgraciadamente, mucha gente utiliza el método 2 para escribir código. Aunque en el ejemplo anterior no es algo grave, es una mala costumbre para muchos otros casos. Entiendes el siguiente código?

filter(select(filter(inventario_completo_tbl, dbh_mm >= 300), dbh_mm:nombre_ifn), nombre_ifn == "Pinus sylvestris")

# A tibble: 29 × 3
   dbh_mm height_m nombre_ifn      
    <int>    <dbl> <fct>           
 1    303     10.1 Pinus sylvestris
 2    309     10.3 Pinus sylvestris
 3    494     14.3 Pinus sylvestris
 4    335     18.9 Pinus sylvestris
 5    300     12.3 Pinus sylvestris
 6    326     15.1 Pinus sylvestris
 7    325     14.7 Pinus sylvestris
 8    343     14.9 Pinus sylvestris
 9    329     11.6 Pinus sylvestris
10    328     18.9 Pinus sylvestris
# ℹ 19 more rows

Y si lo escribo de este modo?

filter(
    select(
        filter(
            inventario_completo_tbl, dbh_mm >= 300
        ), 
        dbh_mm:nombre_ifn), 
    nombre_ifn == "Pinus sylvestris"
)

# A tibble: 29 × 3
   dbh_mm height_m nombre_ifn      
    <int>    <dbl> <fct>           
 1    303     10.1 Pinus sylvestris
 2    309     10.3 Pinus sylvestris
 3    494     14.3 Pinus sylvestris
 4    335     18.9 Pinus sylvestris
 5    300     12.3 Pinus sylvestris
 6    326     15.1 Pinus sylvestris
 7    325     14.7 Pinus sylvestris
 8    343     14.9 Pinus sylvestris
 9    329     11.6 Pinus sylvestris
10    328     18.9 Pinus sylvestris
# ℹ 19 more rows

Y de este?

inventario_completo_tbl |> 
    filter(dbh_mm >= 300) |> 
    select(dbh_mm:nombre_ifn) |> 
    filter(nombre_ifn == "Pinus sylvestris")

# A tibble: 29 × 3
   dbh_mm height_m nombre_ifn      
    <int>    <dbl> <fct>           
 1    303     10.1 Pinus sylvestris
 2    309     10.3 Pinus sylvestris
 3    494     14.3 Pinus sylvestris
 4    335     18.9 Pinus sylvestris
 5    300     12.3 Pinus sylvestris
 6    326     15.1 Pinus sylvestris
 7    325     14.7 Pinus sylvestris
 8    343     14.9 Pinus sylvestris
 9    329     11.6 Pinus sylvestris
10    328     18.9 Pinus sylvestris
# ℹ 19 more rows
…
